module pocketurso

go 1.23.3

require (
	github.com/pocketbase/dbx v1.11.0
	github.com/pocketbase/pocketbase v0.24.3
	github.com/tursodatabase/libsql-client-go v0.0.0-20240902231107-85af5b9d094d
)

require (
	github.com/AlecAivazis/survey/v2 v2.3.7 // indirect
	github.com/antlr4-go/antlr/v4 v4.13.0 // indirect
	github.com/asaskevich/govalidator v0.0.0-20230301143203-a9d515a09cc2 // indirect
	github.com/aws/aws-sdk-go-v2 v1.32.8 // indirect
	github.com/aws/aws-sdk-go-v2/aws/protocol/eventstream v1.6.7 // indirect
	github.com/aws/aws-sdk-go-v2/config v1.28.10 // indirect
	github.com/aws/aws-sdk-go-v2/credentials v1.17.51 // indirect
	github.com/aws/aws-sdk-go-v2/feature/ec2/imds v1.16.23 // indirect
	github.com/aws/aws-sdk-go-v2/feature/s3/manager v1.17.48 // indirect
	github.com/aws/aws-sdk-go-v2/internal/configsources v1.3.27 // indirect
	github.com/aws/aws-sdk-go-v2/internal/endpoints/v2 v2.6.27 // indirect
	github.com/aws/aws-sdk-go-v2/internal/ini v1.8.1 // indirect
	github.com/aws/aws-sdk-go-v2/internal/v4a v1.3.27 // indirect
	github.com/aws/aws-sdk-go-v2/service/internal/accept-encoding v1.12.1 // indirect
	github.com/aws/aws-sdk-go-v2/service/internal/checksum v1.4.8 // indirect
	github.com/aws/aws-sdk-go-v2/service/internal/presigned-url v1.12.8 // indirect
	github.com/aws/aws-sdk-go-v2/service/internal/s3shared v1.18.8 // indirect
	github.com/aws/aws-sdk-go-v2/service/s3 v1.72.2 // indirect
	github.com/aws/aws-sdk-go-v2/service/sso v1.24.9 // indirect
	github.com/aws/aws-sdk-go-v2/service/ssooidc v1.28.8 // indirect
	github.com/aws/aws-sdk-go-v2/service/sts v1.33.6 // indirect
	github.com/aws/smithy-go v1.22.1 // indirect
	github.com/coder/websocket v1.8.12 // indirect
	github.com/disintegration/imaging v1.6.2 // indirect
	github.com/domodwyer/mailyak/v3 v3.6.2 // indirect
	github.com/dustin/go-humanize v1.0.1 // indirect
	github.com/fatih/color v1.18.0 // indirect
	github.com/gabriel-vasile/mimetype v1.4.8 // indirect
	github.com/ganigeorgiev/fexpr v0.4.1 // indirect
	github.com/go-ozzo/ozzo-validation/v4 v4.3.0 // indirect
	github.com/golang-jwt/jwt/v4 v4.5.1 // indirect
	github.com/golang/groupcache v0.0.0-20241129210726-2c02b8208cf8 // indirect
	github.com/google/uuid v1.6.0 // indirect
	github.com/googleapis/gax-go/v2 v2.14.1 // indirect
	github.com/hashicorp/golang-lru/v2 v2.0.7 // indirect
	github.com/inconshreveable/mousetrap v1.1.0 // indirect
	github.com/kballard/go-shellquote v0.0.0-20180428030007-95032a82bc51 // indirect
	github.com/mattn/go-colorable v0.1.14 // indirect
	github.com/mattn/go-isatty v0.0.20 // indirect
	github.com/mgutz/ansi v0.0.0-20200706080929-d51e80ef957d // indirect
	github.com/ncruces/go-strftime v0.1.9 // indirect
	github.com/remyoudompheng/bigfft v0.0.0-20230129092748-24d4a6f8daec // indirect
	github.com/spf13/cast v1.7.1 // indirect
	github.com/spf13/cobra v1.8.1 // indirect
	github.com/spf13/pflag v1.0.5 // indirect
	go.opencensus.io v0.24.0 // indirect
	gocloud.dev v0.40.0 // indirect
	golang.org/x/crypto v0.32.0 // indirect
	golang.org/x/exp v0.0.0-20241217172543-b2144cdd0a67 // indirect
	golang.org/x/image v0.23.0 // indirect
	golang.org/x/net v0.34.0 // indirect
	golang.org/x/oauth2 v0.25.0 // indirect
	golang.org/x/sync v0.10.0 // indirect
	golang.org/x/sys v0.29.0 // indirect
	golang.org/x/term v0.28.0 // indirect
	golang.org/x/text v0.21.0 // indirect
	golang.org/x/xerrors v0.0.0-20240903120638-7835f813f4da // indirect
	google.golang.org/api v0.216.0 // indirect
	google.golang.org/genproto/googleapis/rpc v0.0.0-20250106144421-5f5ef82da422 // indirect
	google.golang.org/grpc v1.69.2 // indirect
	google.golang.org/protobuf v1.36.2 // indirect
	modernc.org/gc/v3 v3.0.0-20250105121824-520be1a3aee6 // indirect
	modernc.org/libc v1.55.3 // indirect
	modernc.org/mathutil v1.7.1 // indirect
	modernc.org/memory v1.8.1 // indirect
	modernc.org/sqlite v1.34.4 // indirect
	modernc.org/strutil v1.2.1 // indirect
	modernc.org/token v1.1.0 // indirect
)
