module goplaywright

go 1.22.2

require github.com/playwright-community/playwright-go v0.5001.0

require (
	github.com/deckarep/golang-set/v2 v2.7.0 // indirect
	github.com/go-jose/go-jose/v3 v3.0.3 // indirect
	github.com/go-stack/stack v1.8.1 // indirect
)
